AirlineCode,airline_name
IM,MAHAN AIR
JP,ADRIA AIRWAYS
A3,AEGEAN AIRLINES S.A.
RE,AER ARANN EXPRESS
EI,AER LINGUS
Z9,AERO ZAMBIA
E4,AEROASIA
SU,AEROFLOT
AR,AEROLINEAS ARGENTINAS
AM,AEROMEXICO-AEROVIAS DE MEXICO S.A.
VH,AEROPOSTAL ALAS DE VENEZUELA
VV,AEROSVIT AIRLINES
8X,AEROVISTA
Y2,AFRICAONE
8U,AFRIQIYAH AIRWAYS
LD,AHK AIRHONGKONG LTD
ZI,AIGLE AZUR
KC,AIR ASTANA
RK,AIR AFRIQUE
AH,AIR ALGERIE
A6,AIR ALPS AVIATION
G9,AIR ARABIA
4L,AIR ASTANA
LQ,AIR ASTANA.KZ
UU,AIR AUSTRAL
BT,AIR BALTIC CORPORATION S/A
AB,AIR BERLIN GMBH AND CO LUFTVERKEHRS
ED,AIR BLUE
JA,AIR BOSNA
BP,AIR BOTSWANA PTY LTD
2J,AIR BURKINA
AC,AIR CANADA
CA,AIR CHINA
GG,AIR COMORES INTERNATIONAL
OR,AIR COMOROS
EN,AIR DOLOMITI
UX,AIR EUROPA LINEAS AEREAS S.A.
AF,AIR FRANCE
GN,AIR GABON
AI,AIR INDIA
IX,AIR INDIA EXPRESS
V6,AIR JET
IJ,AIR LIBERTE
FU,AIR LITTORAL
NX,AIR MACAU COMPANY LIMITED
MD,AIR MADAGASCAR
QM,AIR MALAWI
L6,AIR MALDIVES
I5,AIR MALI
KM,AIR MALTA
MR,AIR MAURITANIE
MK,AIR MAURITIUS
9U,AIR MOLDOVA
SW,AIR NAMIBIA
SZ,AIR NEPAL INTERNATIONAL
NZ,AIR NEW ZEALAND LIMITED
EL,AIR NIPPON
768,AIR NIPPON CO. LTD
PX,AIR NIUGINI
4N,AIR NORTH CHARTER AND TRAINING LTD
AP,AIR ONE
FJ,AIR PACIFIC LIMITED
V7,AIR SENEGAL INTERNATIONAL
HM,AIR SEYCHELLES
TN,AIR TAHITI NUI
TC,AIR TANZANIA
6U,AIR UKRAINE
UM,AIR ZIMBABWE
ED,AIRBLUE
A5,AIRLINAIR
FL,AIRTRAN AIRWAYS INC
AK,AL KHANJRY TRANSPORT - SULTANATE OF OMAN
AS,ALASKA AIRLINES
AZ,ALITALIA
NH,ALL NIPPON AIRWAYS
AQ,ALOHA AIRLINES INC
E8,ALPI EAGLES S.P.A.
M9,ALTYN AIR
HP,AMERICA WEST AIRLINES
AA,AMERICAN AIRLINES
8G,ANGEL AIRLINES
AN,ANSETT AUSTRALIAN
IW,AOM FRENCH AIRLINES
A1,AONE AIRLINE
2A,ARIA AIR
FG,ARIANA AFGHAN AIRLINES
W3,ARIK AIR
U8,ARMAVIA
R3,ARMENIAN AIRLINES
MV,ARMENIAN INTERNATIONAL AIRWAYS
OZ,ASIANA AIRLINES
OS,AUSTRIAN AIRLINES
AV,AVIANCA AEROVIAS NACIONALES
HBD,AXIS
J2,AZERBAIJAN AIRLINES
DV,AZMAIR AIR
UP,BAHAMAS AIR
BN,BAHRAIN AIR
LZ,BALKAN BULGARIAN AIRLINES
PG,BANGKOK AIRWAYS LTD
BG,BANGLADESH BIMAN
B2,BELAVIA
B3,BELLVIEW AIRLINES LTD
B4,BHOJA AIR
NT,BINTER CANARIAS
QW,BLUE WINGS
KF,BLUE1
BU,BRAATHENS ASA
BA,BRITISH AIRWAYS
JY,BRITISH EUROPEAN
BD,BRITISH MIDLAND
TH,BRITISH REGIONAL AIRLINES
SN,BRUSSELS AIRLINES
FB,BULGARIA AIR
K6,CAMBODIA ANGKOR AIR
UY,CAMEROON AIRLINES
CP,CANADIAN PACIFIC
CV,CARGO LUX
8B,CARIBBEAN STAR AIRLINES
N2,CASPIAN AIRLINES
CX,CATHAY PACIFIC
KX,CAYMAN AIRWAYS LTD
XK,CCM AIRLINES
5J,CEBU PACIFIC AIR
9M,CENTRAL MOUNTAIN AIR LTD.
CI,CHINA AIRLINES
MU,CHINA EASTERN AIRLINES
CZ,CHINA SOUTHERN
QI,CIMBER AIR
C9,CIRRUS LUFTFAHRTGES ELLS
FD,CITYFLYER EXPRESS
DE,CONDOR FLUGDIENST GMBH
CO,CONTINENTAL
CM,COPA AIRLINE
V9,CORDIAL TOURS
OU,CROATIA AIRLINES
CY,CYPRUS AIRLINES
OK,CZECH AIRLINES
D3,DAALLO AIRLINES
F7,DARWIN AIRLINE SA
SE,DAS AIR CARGO
DL,DELTA AIRLINES INC
DI,DEUTSCHE BA
SS,DHL
D6,DJIBOUTI AIRLINES
D8,DJIBOUTI ARILINES
9Z,DNATA AIRLINES
D9,DONAVIA AIRLINES
7D,DONBASSAERO AIRLINES LLC
4S,EAST WEST AIRLINES
T3,EASTERN AIRWAYS LTD
MS,EGYPT AIR
EK,EMIRATES
B8,ERITREAN AIRLINES
OV,ESTONIAN AIR
ET,ETHIOPIAN AIRLINES
EY,ETIHAD AIRWAYS
3W,EUROMANX
EW,EUROWING AG
BR,EVA AIR
A8,FARS QESHM AIR
FC,FC 216 FINNISH COMMUTER AIRLINES
FM1,FED EX
AY,FINNAIR
W2,FLEXFLIGHTS
FZ,FLY DUBAI
F0,FLY DUBAI DEDICATED
9Y,FLY GEORGIA
BE,FLYBE LIMITED
GY,GABON AIRLINES
GA,GARUDA INDONESIA
3P,GEORGIAN AIRLINES
A9,GEORGIAN AIRWAYS
GH,GHANA AIRWAYS CORPORATION
G0,GHANA INTERNATIONAL AIRLINES
Z5,GMG AIRLINES
G8,GO AIR
127,GOL/VARIG AIRLINES
G3,GOL/VARIG AIRLINES
ZK,GREAT LAKES AVIATION LTD.
GF,GULF AIR
HR,HAHN AIR LINES GMBH
HU,HAINAN AIRLINES COMPANY LTD
HF,HAPAG LLOYD FLUGGESELLSCHAFT
HA,HAWIIAN AIRLINES
YO,HELI AIR MONACO
HT,HELLENIC IMPERIAL AIRWAYS
DU,HEMUS AIR
EO,HEWA BORA AIRWAYS
HX,HONG KONG AIRLINES LTD
KA,HONG KONG DRAGON AIRLINES
IB,IBERIA (LINEAS AEREAS DE ESPANA)
FI,ICELANDAIR
IC,INDIAN AIRLINES
6E,INDIGO
IR,IRAN AIR
EP,IRAN ASEEMAN AIRLINES
Y4,IRAN ASSEMAN AIRLINES
B9,IRAN-AIR TOURS
IA,IRAQI AIRWAYS
JO,JALWAYS CO LTD
JD,JAPAN AIR SYSTEM COMPANY
234,JAPAN AIR SYSTEM COMPANY
JL,JAPAN AIRLINES
J9,JAZEERA AIRWAYS
9W,JET AIRWAYS
J0,JET LINK EXPRESS LTD
JM,JM AJM AIR JAMAICA
X7,JOINT STOCK COMPANY CHITAAVIA
JV,JORDAN AVIATION
R5,JORDAN AVIATION
3J,JUBBA AIRWAYS
JU,JUGOSLOVENSKI AEROTRANSPORT
J7,JUPITER AIRLINES
RQ,KAM AIR
KQ,KENYA AIRWAYS
X6,"KHORS AIR, UKRAINE"
YK,KIBRIS TURK HAVA YOLLARI
GW,KIL AIR LINES OF KUBAN
IT,KINGFISHER AIRLINES LTD
Y9,KISH AIR
XT,KLM EXEL
UK,KLM UK
KE,KOREAN AIR
7B,KRASNOYARSK AIRLINES
K7,KURDISTAN AIRLINES
KU,KUWAIT AIRWAYS
KR,KYRGYZ AIRWAYS
TM,LAM LINHAS AEREAS DE MOCAMBIQUE
LA,LAN CHILES
LP,LAN PERU S.A
QV,LAO AIRLINES
NG,LAUDA AIR
LI,LIAT
LN,LIBYAN AIRLINES
LR,LINEAS AEREAS COSTARRICENSES S.A.
JT,LION AIRLINES
TE,LITHUANIAN AIRLINES
LB,LLOYD AEREO BOLIVIANO S.A.
LO,LOT POLISH AIR
LT,LTU INTERNATIIONAL AIRWAYS
LH,LUFTHANSA
LG,LUXAIR
IN,MACEDONIAN AIRLINES
DM,MAERSK AIR
VB,MAERSK AIR LTD
W5,MAHAN AIR
MH,MALAYSIA AIRLINES
MA,MALEV HUNGARIAN AIRLINES
EF,MALTA AIRCHARTER
AE,MANDARIN AIRLINES LTD
ZZ,MARHABA SERVICE
MP,MARTINAIR HOLLAND N.V.
IG,MERIDIANA
MZ,MERPATI NUSANTARA AIRLINES
MX,MEXICANA DE AVIACION
OM,MIAT - MONGOLIAN AIRLINES
YX,MID WEST AIRLINES
ME,MIDDLE EAST AIRLINES
MJ,MIHIN LANKA
Y3,MIRAVIA AIRLINES
N3,MIRAVIA ROMANIAN AIRLINES
MB,MNG AIRLINE CARGO
ZB,MONARCH AIRLINES
YM,MONTENEGRO AIRLINES
M8,MOSCOW AIRLINES
P3,MUSCAT AVIATION SERVICES
8M,MYANMAR AIRWAYS INTERNATIONAL
XY,NASAIR
UE,NASAIR
CE,NATIONWIDE AIRLINES (PTY) LTD
JX,NICE HELICOPTERS
WT,NIGERIA AIRWAYS
NW,NORTHWEST AIRLINES INC.
DY,NORWEGIAN AIR SHUTTLE A.S.
GR,OBIT AIRLINES
OL,OLT-OSTFRIESISCHE LUFTTRANSPORT
OA,OLYMPIC AIRWAYS
WY,OMAN AIR
YY,OPEN CARRIER
PK,PAKISTAN INTERNATIONAL AIRLINE
2P,PAL EXPRESS
PL,PALESTINIAN AIRLINES
PF,PALESTINIAN AIRLINES
NR,PAMIR AIR
PM,PAMIR AIR
PQ,PARIZ AIR
PC,PEGASUS HAVA TASIMACILIGI
PR,PHILIPPINE AIRLINES
P2,PHOENIX AVIATION
9R,PHUKET AIRLIENS
PU,PLUNA LINEAS AEREAS URUGUAYAS S.A.
PO,POLAR AIR CARGO
NI,PORTUGALIA AIRLINES
PW,PRECISION AIR SERVICES LTD
FV,PULKOVO
QF,QANTAS
QR,QATAR AIRWAYS
RIQ,QESHM AIR
QN,QESHMAIR
RT,RAK AIRWAYS
7R,RED SEA AIR
SH,RED SEA AIRWAYS
FN,REGIONAL AIR LINES
ZL,REGIONAL EXPRESS
0,RIVERSIDE TRAVEL
4R,ROSAT AIRLINES
AT,ROYAL AIR MAROC
BI,ROYAL BRUNEI
KL,ROYAL DUTCH AIRLINES
RL,ROYAL FALCON
RJ,ROYAL JORDANIAN
RA,ROYAL NEPAL AIRWAYS
WB,RWANDA EXPRESS
4Q,SAFI AIRWAYS
S2,SAHARA AIRLINES LIMITED
SV,SAUDIA
ST,SCA SPECIAL CARGO AIRLINES
SK,SCANDINAVIAN AIRLINES
CB,SCOTAIRWAYS
DN,SENEGAL AIRLINES
NL,SHAHEEN AIR INTERNATIONAL
SC,SHANDONG AIRLINES
FM,SHANGHAI AIRLINES CO LTD
ZH,SHENZHEN AIRLINES
S7,SIBERIA AIRLINES
FT,SIEM REAP AIRWAYS INTERNATIONAL
MI,SILK AIR PTD LTD.
Y7,SILVERJET
SQ,SINGAPORE AIRLINES
JZ,SKYWAYS AB
J5,SOCHI AIRLINES AVIAPRIMA
IE,SOLOMON AIRLINES
4J,SOMON AIR
SA,SOUTH AFRICAN AIRWAYS
S4,SPAIR AIRLINES
JK,SPANAIR
SG,SPICEJET
Q2,SPRINT PREPAID CALLING CARD
UL,SRILANKAN AIRLINES
SD,SUDAN AIRWAYS
PY,SURINAM AIRWAYS
SR,SWISS AIR
LX,SWISS INTL AIRLINES LTD
RB,SYRIAN ARAB AIRLINES
DT,TAAG-LINHAS AEREAS DE ANGOLA
TA,TACA INTL AIRLINE
JJ,TAM - LINHAS AEREAS
PZ,TAM-TRANSPORTES AEREOS DEL MERCOSUR S.A.
TP,TAP AIR PORTUGAL
RO,TAROM ROMANIAN AIR
T6,TAVREY AIRCOMPANY
TG,THAI AIRWAYS
HK,TIME AIR SWEDEN
VR,TRANPORTES AEREOS DE CABA VERDE
Q8,TRANS AIR CONGO (TAC)
TL,TRANS MEDITERRANEAN AIRWAYS
AX,TRANS STATES
UN,TRANSAERO AIRLINES
HV,TRANSAVIA AIRLINES
MT,TRANSMED AIRLINE
TW,TRANSWORLD AIRLINES
T4,TRIP LINHAS AEREAS
TU,TUNIS AIR
TK,TURKISH AIRLINES
T5,TURKMENISTAN AIRLINES
VO,TYROLEAN
QU,UGANDA AIRLINES
PS,UKRAINE INTERNATIONAL AIRLINES
UF,UKRAINIAN MEDITERRANEAN AIRLINES LTD.
UA,UNITED AIRLINES
U6,URAL AIRLINES
US,US AIRWAYS INC.
UT,UTAIR AVIATION
HY,UZBEKISTAN AIRWAYS
RG,VARIG
VN,VIETNAM AIRLINES
VS,VIRGIN ATLANTIC
VK,VIRGIN NIGERIA AIRWAYS
VG,VLM AIRLINES
V5,VNUVOKO AIRLINES
263,VOLARE AIRLINES S.P.A
VA,VOLARE AIRLINES S.P.A
KW,WATANIYA AIRLINES
BW,WEST INDIES AIRLINES
WF,WIDEROES FLYVESELSKAP
IY,YEMENIA YEMEN AIRWAY
ZA,ZAS AIRLINE OF EGYPT
ZJ,ZEBRA AIRLINES